%YAML 1.1
%TAG !u! tag:unity3d.com,2011:
--- !u!74 &7400000
AnimationClip:
  m_ObjectHideFlags: 0
  m_PrefabParentObject: {fileID: 0}
  m_PrefabInternal: {fileID: 0}
  m_Name: knifeAnimation
  serializedVersion: 6
  m_Legacy: 1
  m_Compressed: 0
  m_UseHighQualityCurve: 1
  m_RotationCurves:
  - curve:
      serializedVersion: 2
      m_Curve:
      - serializedVersion: 2
        time: 0
        value: {x: 0, y: 0, z: 0.005763581, w: 0.9999834}
        inSlope: {x: -0.00007294985, y: -0.000057503876, z: -0.018405065, w: 0.000103712075}
        outSlope: {x: -0.00007294985, y: -0.000057503876, z: -0.018405065, w: 0.000103712075}
        tangentMode: 0
      - serializedVersion: 2
        time: 0.016666668
        value: {x: -0.0000012158309, y: -0.000000958398, z: 0.00545683, w: 0.9999851}
        inSlope: {x: -0.00014461364, y: -0.0001140935, z: -0.036584225, w: 0.00018954277}
        outSlope: {x: -0.00014461364, y: -0.0001140935, z: -0.036584225, w: 0.00018954277}
        tangentMode: 0
      - serializedVersion: 2
        time: 0.033333335
        value: {x: -0.000004820455, y: -0.000003803117, z: 0.004544107, w: 0.9999897}
        inSlope: {x: -0.00028586463, y: -0.00022608798, z: -0.07260366, w: 0.00030934808}
        outSlope: {x: -0.00028586463, y: -0.00022608798, z: -0.07260366, w: 0.00030934808}
        tangentMode: 0
      - serializedVersion: 2
        time: 0.050000004
        value: {x: -0.000010744653, y: -0.000008494665, z: 0.0030367076, w: 0.9999954}
        inSlope: {x: -0.00042277673, y: -0.0003359458, z: -0.10794534, w: 0.000295043}
        outSlope: {x: -0.00042277673, y: -0.0003359458, z: -0.10794534, w: 0.000295043}
        tangentMode: 0
      - serializedVersion: 2
        time: 0.06666667
        value: {x: -0.000018913013, y: -0.00001500131, z: 0.0009459284, w: 0.9999995}
        inSlope: {x: -0.000554992, y: -0.00044411246, z: -0.14260903, w: 0.00009298326}
        outSlope: {x: -0.000554992, y: -0.00044411246, z: -0.14260903, w: 0.00009298326}
        tangentMode: 0
      - serializedVersion: 2
        time: 0.083333336
        value: {x: -0.000029244386, y: -0.000023298413, z: -0.0017169263, w: 0.9999985}
        inSlope: {x: -0.00068217644, y: -0.00055099267, z: -0.17659386, w: -0.00035226348}
        outSlope: {x: -0.00068217644, y: -0.00055099267, z: -0.17659386, w: -0.00035226348}
        tangentMode: 0
      - serializedVersion: 2
        time: 0.1
        value: {x: -0.000041652227, y: -0.00003336773, z: -0.004940533, w: 0.9999878}
        inSlope: {x: -0.0008040181, y: -0.0006569495, z: -0.20989835, w: -0.0010943414}
        outSlope: {x: -0.0008040181, y: -0.0006569495, z: -0.20989835, w: -0.0010943414}
        tangentMode: 0
      - serializedVersion: 2
        time: 0.11666667
        value: {x: -0.000056044988, y: -0.000045196728, z: -0.008713538, w: 0.99996203}
        inSlope: {x: -0.00092022686, y: -0.0007623057, z: -0.24252021, w: -0.0021779533}
        outSlope: {x: -0.00092022686, y: -0.0007623057, z: -0.24252021, w: -0.0021779533}
        tangentMode: 0
      - serializedVersion: 2
        time: 0.13333334
        value: {x: -0.00007232646, y: -0.000058777925, z: -0.013024542, w: 0.9999152}
        inSlope: {x: -0.0010305312, y: -0.000867342, z: -0.27445626, w: -0.0036478038}
        outSlope: {x: -0.0010305312, y: -0.000867342, z: -0.27445626, w: -0.0036478038}
        tangentMode: 0
      - serializedVersion: 2
        time: 0.15
        value: {x: -0.00009039603, y: -0.00007410813, z: -0.017862082, w: 0.99984044}
        inSlope: {x: -0.0011346773, y: -0.00097229856, z: -0.30570275, w: -0.005539656}
        outSlope: {x: -0.0011346773, y: -0.00097229856, z: -0.30570275, w: -0.005539656}
        tangentMode: 0
      - serializedVersion: 2
        time: 0.16666667
        value: {x: -0.000110149034, y: -0.000091187874, z: -0.023214633, w: 0.9997305}
        inSlope: {x: -0.0012324285, y: -0.0010773747, z: -0.33625466, w: -0.007892848}
        outSlope: {x: -0.0012324285, y: -0.0010773747, z: -0.33625466, w: -0.007892848}
        tangentMode: 0
      - serializedVersion: 2
        time: 0.18333334
        value: {x: -0.00013147698, y: -0.00011002062, z: -0.02907057, w: 0.99957734}
        inSlope: {x: -0.001323565, y: -0.0011827303, z: -0.36610585, w: -0.010737778}
        outSlope: {x: -0.001323565, y: -0.0011827303, z: -0.36610585, w: -0.010737778}
        tangentMode: 0
      - serializedVersion: 2
        time: 0.2
        value: {x: -0.00015426787, y: -0.00013061221, z: -0.03541816, w: 0.9993726}
        inSlope: {x: -0.001407884, y: -0.0012884843, z: -0.3952496, w: -0.014103057}
        outSlope: {x: -0.001407884, y: -0.0012884843, z: -0.3952496, w: -0.014103057}
        tangentMode: 0
      - serializedVersion: 2
        time: 0.21666667
        value: {x: -0.00017840644, y: -0.0001529701, z: -0.042245556, w: 0.99910724}
        inSlope: {x: -0.0014851969, y: -0.0013947191, z: -0.42367816, w: -0.018015506}
        outSlope: {x: -0.0014851969, y: -0.0013947191, z: -0.42367816, w: -0.018015506}
        tangentMode: 0
      - serializedVersion: 2
        time: 0.23333333
        value: {x: -0.00020377443, y: -0.00017710285, z: -0.049540766, w: 0.9987721}
        inSlope: {x: -0.001555332, y: -0.0015014787, z: -0.4513825, w: -0.022493007}
        outSlope: {x: -0.001555332, y: -0.0015014787, z: -0.4513825, w: -0.022493007}
        tangentMode: 0
      - serializedVersion: 2
        time: 0.25
        value: {x: -0.00023025084, y: -0.00020301939, z: -0.057291638, w: 0.9983575}
        inSlope: {x: -0.0016181319, y: -0.0016087694, z: -0.4783528, w: -0.027558792}
        outSlope: {x: -0.0016181319, y: -0.0016087694, z: -0.4783528, w: -0.027558792}
        tangentMode: 0
      - serializedVersion: 2
        time: 0.26666668
        value: {x: -0.00025771218, y: -0.00023072852, z: -0.065485865, w: 0.99785346}
        inSlope: {x: -0.0016734591, y: -0.0017165644, z: -0.50457823, w: -0.033225387}
        outSlope: {x: -0.0016734591, y: -0.0017165644, z: -0.50457823, w: -0.033225387}
        tangentMode: 0
      - serializedVersion: 2
        time: 0.28333336
        value: {x: -0.00028603285, y: -0.00026023824, z: -0.074110925, w: 0.99724996}
        inSlope: {x: -0.0017211884, y: -0.0018247986, z: -0.5300474, w: -0.03950533}
        outSlope: {x: -0.0017211884, y: -0.0018247986, z: -0.5300474, w: -0.03950533}
        tangentMode: 0
      - serializedVersion: 2
        time: 0.30000004
        value: {x: -0.00031508517, y: -0.0002915552, z: -0.08315413, w: 0.9965366}
        inSlope: {x: -0.0017612127, y: -0.0019333796, z: -0.5547492, w: -0.046407543}
        outSlope: {x: -0.0017612127, y: -0.0019333796, z: -0.5547492, w: -0.046407543}
        tangentMode: 0
      - serializedVersion: 2
        time: 0.31666672
        value: {x: -0.00034474, y: -0.00032468428, z: -0.09260258, w: 0.99570304}
        inSlope: {x: -0.0017934464, y: -0.00204218, z: -0.57866913, w: -0.053935602}
        outSlope: {x: -0.0017934464, y: -0.00204218, z: -0.57866913, w: -0.053935602}
        tangentMode: 0
      - serializedVersion: 2
        time: 0.3333334
        value: {x: -0.00037486677, y: -0.0003596279, z: -0.102443114, w: 0.99473876}
        inSlope: {x: -0.0018178159, y: -0.0021510418, z: -0.601794, w: -0.062096663}
        outSlope: {x: -0.0018178159, y: -0.0021510418, z: -0.601794, w: -0.062096663}
        tangentMode: 0
      - serializedVersion: 2
        time: 0.35000008
        value: {x: -0.0004053339, y: -0.00039638573, z: -0.1126624, w: 0.99363315}
        inSlope: {x: -0.001834274, y: -0.0022597837, z: -0.6241113, w: -0.07088536}
        outSlope: {x: -0.001834274, y: -0.0022597837, z: -0.6241113, w: -0.07088536}
        tangentMode: 0
      - serializedVersion: 2
        time: 0.36666676
        value: {x: -0.0004360093, y: -0.0004349541, z: -0.12324684, w: 0.9923759}
        inSlope: {x: -0.0018427887, y: -0.0023681894, z: -0.64560515, w: -0.08029991}
        outSlope: {x: -0.0018427887, y: -0.0023681894, z: -0.64560515, w: -0.08029991}
        tangentMode: 0
      - serializedVersion: 2
        time: 0.38333344
        value: {x: -0.00046676025, y: -0.00047532545, z: -0.13418259, w: 0.9909565}
        inSlope: {x: -0.0018433474, y: -0.0024760235, z: -0.66626173, w: -0.09034388}
        outSlope: {x: -0.0018433474, y: -0.0024760235, z: -0.66626173, w: -0.09034388}
        tangentMode: 0
      - serializedVersion: 2
        time: 0.40000013
        value: {x: -0.00049745425, y: -0.0005174883, z: -0.14545558, w: 0.98936445}
        inSlope: {x: -0.0018359636, y: -0.0025830404, z: -0.68606555, w: -0.10099223}
        outSlope: {x: -0.0018359636, y: -0.0025830404, z: -0.68606555, w: -0.10099223}
        tangentMode: 0
      - serializedVersion: 2
        time: 0.4166668
        value: {x: -0.0005279591, y: -0.00056142686, z: -0.15705146, w: 0.9875901}
        inSlope: {x: -0.0018206753, y: -0.0026889525, z: -0.70500106, w: -0.112234265}
        outSlope: {x: -0.0018206753, y: -0.0026889525, z: -0.70500106, w: -0.112234265}
        tangentMode: 0
      - serializedVersion: 2
        time: 0.4333335
        value: {x: -0.0005581435, y: -0.0006071201, z: -0.16895564, w: 0.9856233}
        inSlope: {x: -0.0017975308, y: -0.002793459, z: -0.7230559, w: -0.12406637}
        outSlope: {x: -0.0017975308, y: -0.002793459, z: -0.7230559, w: -0.12406637}
        tangentMode: 0
      - serializedVersion: 2
        time: 0.45000017
        value: {x: -0.0005878768, y: -0.00065454224, z: -0.18115334, w: 0.9834545}
        inSlope: {x: -0.0017666068, y: -0.0028962472, z: -0.7402131, w: -0.13647068}
        outSlope: {x: -0.0017666068, y: -0.0028962472, z: -0.7402131, w: -0.13647068}
        tangentMode: 0
      - serializedVersion: 2
        time: 0.46666685
        value: {x: -0.0006170304, y: -0.00070366176, z: -0.19362943, w: 0.9810743}
        inSlope: {x: -0.0017280204, y: -0.0029969993, z: -0.7564583, w: -0.14942217}
        outSlope: {x: -0.0017280204, y: -0.0029969993, z: -0.7564583, w: -0.14942217}
        tangentMode: 0
      - serializedVersion: 2
        time: 0.48333353
        value: {x: -0.00064547756, y: -0.0007544423, z: -0.20636864, w: 0.9784738}
        inSlope: {x: -0.0016818953, y: -0.0030953796, z: -0.7717811, w: -0.16289414}
        outSlope: {x: -0.0016818953, y: -0.0030953796, z: -0.7717811, w: -0.16289414}
        tangentMode: 0
      - serializedVersion: 2
        time: 0.5000002
        value: {x: -0.0006730936, y: -0.00080684107, z: -0.21935546, w: 0.97564447}
        inSlope: {x: -0.0016283784, y: -0.0031910161, z: -0.7861638, w: -0.17687398}
        outSlope: {x: -0.0016283784, y: -0.0031910161, z: -0.7861638, w: -0.17687398}
        tangentMode: 0
      - serializedVersion: 2
        time: 0.5166668
        value: {x: -0.0006997568, y: -0.0008608094, z: -0.23257408, w: 0.972578}
        inSlope: {x: -0.0015676619, y: -0.003283572, z: -0.7995963, w: -0.19132751}
        outSlope: {x: -0.0015676619, y: -0.003283572, z: -0.7995963, w: -0.19132751}
        tangentMode: 0
      - serializedVersion: 2
        time: 0.5333335
        value: {x: -0.00072534895, y: -0.00091629336, z: -0.24600865, w: 0.9692669}
        inSlope: {x: -0.0014999483, y: -0.0033726906, z: -0.8120664, w: -0.20622453}
        outSlope: {x: -0.0014999483, y: -0.0033726906, z: -0.8120664, w: -0.20622453}
        tangentMode: 0
      - serializedVersion: 2
        time: 0.55000013
        value: {x: -0.000749755, y: -0.0009732323, z: -0.25964293, w: 0.96570385}
        inSlope: {x: -0.0014254628, y: -0.0034579923, z: -0.82356095, w: -0.22153637}
        outSlope: {x: -0.0014254628, y: -0.0034579923, z: -0.82356095, w: -0.22153637}
        tangentMode: 0
      - serializedVersion: 2
        time: 0.5666668
        value: {x: -0.0007728643, y: -0.0010315597, z: -0.27346066, w: 0.96188235}
        inSlope: {x: -0.0013444743, y: -0.003539126, z: -0.8340757, w: -0.23723447}
        outSlope: {x: -0.0013444743, y: -0.003539126, z: -0.8340757, w: -0.23723447}
        tangentMode: 0
      - serializedVersion: 2
        time: 0.58333343
        value: {x: -0.0007945708, y: -0.0010912031, z: -0.28744543, w: 0.95779604}
        inSlope: {x: -0.001257264, y: -0.0036157295, z: -0.84359753, w: -0.25328124}
        outSlope: {x: -0.001257264, y: -0.0036157295, z: -0.84359753, w: -0.25328124}
        tangentMode: 0
      - serializedVersion: 2
        time: 0.6000001
        value: {x: -0.0008147731, y: -0.0011520839, z: -0.30158055, w: 0.95343965}
        inSlope: {x: -0.0011641234, y: -0.0036874402, z: -0.8521172, w: -0.26963735}
        outSlope: {x: -0.0011641234, y: -0.0036874402, z: -0.8521172, w: -0.26963735}
        tangentMode: 0
      - serializedVersion: 2
        time: 0.61666673
        value: {x: -0.00083337486, y: -0.0012141176, z: -0.3158493, w: 0.94880813}
        inSlope: {x: -0.0010653932, y: -0.0037539122, z: -0.85963273, w: -0.28626528}
        outSlope: {x: -0.0010653932, y: -0.0037539122, z: -0.85963273, w: -0.28626528}
        tangentMode: 0
      - serializedVersion: 2
        time: 0.6333334
        value: {x: -0.00085028616, y: -0.0012772141, z: -0.33023494, w: 0.9438975}
        inSlope: {x: -0.00096146285, y: -0.003814807, z: -0.8661389, w: -0.30312568}
        outSlope: {x: -0.00096146285, y: -0.003814807, z: -0.8661389, w: -0.30312568}
        tangentMode: 0
      - serializedVersion: 2
        time: 0.65000004
        value: {x: -0.0008654236, y: -0.0013412777, z: -0.34472057, w: 0.93870395}
        inSlope: {x: -0.00085269357, y: -0.0038697887, z: -0.87162936, w: -0.32018095}
        outSlope: {x: -0.00085269357, y: -0.0038697887, z: -0.87162936, w: -0.32018095}
        tangentMode: 0
      - serializedVersion: 2
        time: 0.6666667
        value: {x: -0.00087870925, y: -0.001406207, z: -0.35928923, w: 0.9332248}
        inSlope: {x: -0.00073947315, y: -0.0039185537, z: -0.87610686, w: -0.33738825}
        outSlope: {x: -0.00073947315, y: -0.0039185537, z: -0.87610686, w: -0.33738825}
        tangentMode: 0
      - serializedVersion: 2
        time: 0.68333334
        value: {x: -0.00089007267, y: -0.0014718961, z: -0.3739241, w: 0.9274577}
        inSlope: {x: -0.00062224513, y: -0.003960802, z: -0.87957317, w: -0.35470462}
        outSlope: {x: -0.00062224513, y: -0.003960802, z: -0.87957317, w: -0.35470462}
        tangentMode: 0
      - serializedVersion: 2
        time: 0.7
        value: {x: -0.00089945074, y: -0.0015382336, z: -0.3886083, w: 0.9214013}
        inSlope: {x: -0.00050146354, y: -0.0039962227, z: -0.8820247, w: -0.37208176}
        outSlope: {x: -0.00050146354, y: -0.0039962227, z: -0.8820247, w: -0.37208176}
        tangentMode: 0
      - serializedVersion: 2
        time: 0.71666664
        value: {x: -0.0009067881, y: -0.0016051034, z: -0.4033249, w: 0.915055}
        inSlope: {x: -0.0003775981, y: -0.0040245815, z: -0.88346684, w: -0.38947856}
        outSlope: {x: -0.0003775981, y: -0.0040245815, z: -0.88346684, w: -0.38947856}
        tangentMode: 0
      - serializedVersion: 2
        time: 0.7333333
        value: {x: -0.0009120373, y: -0.0016723862, z: -0.41805717, w: 0.9084187}
        inSlope: {x: -0.0002511238, y: -0.004045634, z: -0.8839067, w: -0.40685037}
        outSlope: {x: -0.0002511238, y: -0.004045634, z: -0.8839067, w: -0.40685037}
        tangentMode: 0
      - serializedVersion: 2
        time: 0.74999994
        value: {x: -0.0009151589, y: -0.0017399577, z: -0.43278843, w: 0.9014933}
        inSlope: {x: -0.00022033599, y: -0.00400948, z: -0.8349376, w: -0.39997315}
        outSlope: {x: -0.00022033599, y: -0.00400948, z: -0.8349376, w: -0.39997315}
        tangentMode: 0
      - serializedVersion: 2
        time: 0.7666666
        value: {x: -0.00091938186, y: -0.0018060354, z: -0.4458884, w: 0.8950863}
        inSlope: {x: -0.00039029846, y: -0.0038690795, z: -0.6929977, w: -0.34376475}
        outSlope: {x: -0.00039029846, y: -0.0038690795, z: -0.6929977, w: -0.34376475}
        tangentMode: 0
      - serializedVersion: 2
        time: 0.78333324
        value: {x: -0.0009281688, y: -0.0018689269, z: -0.45588833, w: 0.8900345}
        inSlope: {x: -0.00067201623, y: -0.0036775635, z: -0.51342094, w: -0.2619573}
        outSlope: {x: -0.00067201623, y: -0.0036775635, z: -0.51342094, w: -0.2619573}
        tangentMode: 0
      - serializedVersion: 2
        time: 0.7999999
        value: {x: -0.0009417824, y: -0.0019286207, z: -0.4630024, w: 0.8863544}
        inSlope: {x: -0.000967194, y: -0.003484521, z: -0.3462279, w: -0.18019992}
        outSlope: {x: -0.000967194, y: -0.003484521, z: -0.3462279, w: -0.18019992}
        tangentMode: 0
      - serializedVersion: 2
        time: 0.81666654
        value: {x: -0.0009604086, y: -0.0019850775, z: -0.46742925, w: 0.88402784}
        inSlope: {x: -0.0012713543, y: -0.0032883496, z: -0.19052285, w: -0.10040233}
        outSlope: {x: -0.0012713543, y: -0.0032883496, z: -0.19052285, w: -0.10040233}
        tangentMode: 0
      - serializedVersion: 2
        time: 0.8333332
        value: {x: -0.0009841608, y: -0.0020382323, z: -0.46935317, w: 0.88300765}
        inSlope: {x: -0.0015801195, y: -0.0030875257, z: -0.045521602, w: -0.024130965}
        outSlope: {x: -0.0015801195, y: -0.0030875257, z: -0.045521602, w: -0.024130965}
        tangentMode: 0
      - serializedVersion: 2
        time: 0.84999985
        value: {x: -0.0010130792, y: -0.002087995, z: -0.46894664, w: 0.8832235}
        inSlope: {x: -0.0018891605, y: -0.0028807512, z: 0.089437455, w: 0.047337458}
        outSlope: {x: -0.0018891605, y: -0.0028807512, z: 0.089437455, w: 0.047337458}
        tangentMode: 0
      - serializedVersion: 2
        time: 0.8666665
        value: {x: -0.0010471328, y: -0.0021342572, z: -0.46637192, w: 0.88458556}
        inSlope: {x: -0.0021942656, y: -0.0026670052, z: 0.2148979, w: 0.112976536}
        outSlope: {x: -0.0021942656, y: -0.0026670052, z: 0.2148979, w: 0.112976536}
        tangentMode: 0
      - serializedVersion: 2
        time: 0.88333315
        value: {x: -0.0010862213, y: -0.002176895, z: -0.46178338, w: 0.88698936}
        inSlope: {x: -0.0024913591, y: -0.0024456251, z: 0.33125848, w: 0.1720138}
        outSlope: {x: -0.0024913591, y: -0.0024456251, z: 0.33125848, w: 0.1720138}
        tangentMode: 0
      - serializedVersion: 2
        time: 0.8999998
        value: {x: -0.001130178, y: -0.002215778, z: -0.45532998, w: 0.89031935}
        inSlope: {x: -0.0027764873, y: -0.0022163521, z: 0.43879372, w: 0.22387525}
        outSlope: {x: -0.0027764873, y: -0.0022163521, z: 0.43879372, w: 0.22387525}
        tangentMode: 0
      - serializedVersion: 2
        time: 0.91666645
        value: {x: -0.0011787708, y: -0.0022507734, z: -0.44715694, w: 0.89445186}
        inSlope: {x: -0.0030458365, y: -0.0019793604, z: 0.537652, w: 0.26820147}
        outSlope: {x: -0.0030458365, y: -0.0019793604, z: 0.537652, w: 0.26820147}
        tangentMode: 0
      - serializedVersion: 2
        time: 0.9333331
        value: {x: -0.0012317058, y: -0.0022817566, z: -0.43740827, w: 0.8992594}
        inSlope: {x: -0.0032958025, y: -0.001735335, z: 0.6278628, w: 0.3047976}
        outSlope: {x: -0.0032958025, y: -0.001735335, z: 0.6278628, w: 0.3047976}
        tangentMode: 0
      - serializedVersion: 2
        time: 0.94999975
        value: {x: -0.0012886308, y: -0.0023086178, z: -0.4262282, w: 0.90461177}
        inSlope: {x: -0.003523036, y: -0.0014853724, z: 0.7093699, w: 0.33364207}
        outSlope: {x: -0.003523036, y: -0.0014853724, z: 0.7093699, w: 0.33364207}
        tangentMode: 0
      - serializedVersion: 2
        time: 0.9666664
        value: {x: -0.0013491402, y: -0.002331269, z: -0.41376263, w: 0.9103808}
        inSlope: {x: -0.0037244777, y: -0.0012310792, z: 0.7820265, w: 0.3548745}
        outSlope: {x: -0.0037244777, y: -0.0012310792, z: 0.7820265, w: 0.3548745}
        tangentMode: 0
      - serializedVersion: 2
        time: 0.98333305
        value: {x: -0.0014127799, y: -0.0023496537, z: -0.40016067, w: 0.9164409}
        inSlope: {x: -0.0038972953, y: -0.00097450893, z: 0.8456181, w: 0.36873972}
        outSlope: {x: -0.0038972953, y: -0.00097450893, z: 0.8456181, w: 0.36873972}
        tangentMode: 0
      - serializedVersion: 2
        time: 0.9999997
        value: {x: -0.0014790499, y: -0.0023637526, z: -0.38557538, w: 0.9226721}
        inSlope: {x: -0.0040391237, y: -0.00071809127, z: 0.8998866, w: 0.37563235}
        outSlope: {x: -0.0040391237, y: -0.00071809127, z: 0.8998866, w: 0.37563235}
        tangentMode: 0
      - serializedVersion: 2
        time: 1.0166664
        value: {x: -0.0015474175, y: -0.0023735901, z: -0.37016442, w: 0.928962}
        inSlope: {x: -0.004147949, y: -0.00046465016, z: 0.94453555, w: 0.37603468}
        outSlope: {x: -0.004147949, y: -0.00046465016, z: 0.94453555, w: 0.37603468}
        tangentMode: 0
      - serializedVersion: 2
        time: 1.0333331
        value: {x: -0.001617315, y: -0.002379241, z: -0.35409084, w: 0.9352066}
        inSlope: {x: -0.0042220945, y: -0.00021728707, z: 0.97925484, w: 0.37052786}
        outSlope: {x: -0.0042220945, y: -0.00021728707, z: 0.97925484, w: 0.37052786}
        tangentMode: 0
      - serializedVersion: 2
        time: 1.0499997
        value: {x: -0.0016881538, y: -0.002380833, z: -0.33752263, w: 0.9413129}
        inSlope: {x: -0.004260407, y: 0.00002066141, z: 1.0037417, w: 0.3597722}
        outSlope: {x: -0.004260407, y: 0.00002066141, z: 1.0037417, w: 0.3597722}
        tangentMode: 0
      - serializedVersion: 2
        time: 1.0666664
        value: {x: -0.0017593284, y: -0.0023785522, z: -0.32063282, w: 0.947199}
        inSlope: {x: -0.004262132, y: 0.00024568778, z: 1.0176945, w: 0.3444657}
        outSlope: {x: -0.004262132, y: 0.00024568778, z: 1.0176945, w: 0.3444657}
        tangentMode: 0
      - serializedVersion: 2
        time: 1.083333
        value: {x: -0.0018302248, y: -0.0023726434, z: -0.3035995, w: 0.9527951}
        inSlope: {x: -0.004226998, y: 0.00045422275, z: 1.0208372, w: 0.32535225}
        outSlope: {x: -0.004226998, y: 0.00045422275, z: 1.0208372, w: 0.32535225}
        tangentMode: 0
      - serializedVersion: 2
        time: 1.0999997
        value: {x: -0.0019002282, y: -0.0023634115, z: -0.28660494, w: 0.95804405}
        inSlope: {x: -0.0041550356, y: 0.0006427319, z: 1.0129273, w: 0.30319542}
        outSlope: {x: -0.0041550356, y: 0.0006427319, z: 1.0129273, w: 0.30319542}
        tangentMode: 0
      - serializedVersion: 2
        time: 1.1166663
        value: {x: -0.0019687258, y: -0.002351219, z: -0.2698353, w: 0.9629016}
        inSlope: {x: -0.0040467307, y: 0.0008077578, z: 0.9937567, w: 0.27874973}
        outSlope: {x: -0.0040467307, y: 0.0008077578, z: 0.9937567, w: 0.27874973}
        tangentMode: 0
      - serializedVersion: 2
        time: 1.133333
        value: {x: -0.002035119, y: -0.0023364862, z: -0.25347975, w: 0.9673357}
        inSlope: {x: -0.0039029461, y: 0.0009460244, z: 0.96316564, w: 0.25274122}
        outSlope: {x: -0.0039029461, y: 0.0009460244, z: 0.96316564, w: 0.25274122}
        tangentMode: 0
      - serializedVersion: 2
        time: 1.1499996
        value: {x: -0.002098824, y: -0.002319685, z: -0.2377298, w: 0.9713263}
        inSlope: {x: -0.003724726, y: 0.0010545701, z: 0.9210303, w: 0.22584757}
        outSlope: {x: -0.003724726, y: 0.0010545701, z: 0.9210303, w: 0.22584757}
        tangentMode: 0
      - serializedVersion: 2
        time: 1.1666663
        value: {x: -0.0021592765, y: -0.002301334, z: -0.22277877, w: 0.97486395}
        inSlope: {x: -0.0035134316, y: 0.0011307828, z: 0.867273, w: 0.19867499}
        outSlope: {x: -0.0035134316, y: 0.0011307828, z: 0.867273, w: 0.19867499}
        tangentMode: 0
      - serializedVersion: 2
        time: 1.1833329
        value: {x: -0.0022159382, y: -0.0022819922, z: -0.20882073, w: 0.9779488}
        inSlope: {x: -0.003270524, y: 0.0011724269, z: 0.80185205, w: 0.17174022}
        outSlope: {x: -0.003270524, y: 0.0011724269, z: 0.80185205, w: 0.17174022}
        tangentMode: 0
      - serializedVersion: 2
        time: 1.1999996
        value: {x: -0.0022682939, y: -0.002262253, z: -0.19605039, w: 0.9805886}
        inSlope: {x: -0.002997504, y: 0.0011778262, z: 0.7247648, w: 0.14544024}
        outSlope: {x: -0.002997504, y: 0.0011778262, z: 0.7247648, w: 0.14544024}
        tangentMode: 0
      - serializedVersion: 2
        time: 1.2166662
        value: {x: -0.002315855, y: -0.0022427314, z: -0.18466192, w: 0.9827968}
        inSlope: {x: -0.002695902, y: 0.0011458562, z: 0.63604534, w: 0.120037906}
        outSlope: {x: -0.002695902, y: 0.0011458562, z: 0.63604534, w: 0.120037906}
        tangentMode: 0
      - serializedVersion: 2
        time: 1.2333329
        value: {x: -0.0023581572, y: -0.002224058, z: -0.1748489, w: 0.9845899}
        inSlope: {x: -0.0023622531, y: 0.0010468937, z: 0.5357391, w: 0.095636934}
        outSlope: {x: -0.0023622531, y: 0.0010468937, z: 0.5357391, w: 0.095636934}
        tangentMode: 0
      - serializedVersion: 2
        time: 1.2499995
        value: {x: -0.0023945966, y: -0.002207835, z: -0.16680397, w: 0.9859847}
        inSlope: {x: -0.001993407, y: 0.0008508618, z: 0.42392445, w: 0.0721515}
        outSlope: {x: -0.001993407, y: 0.0008508618, z: 0.42392445, w: 0.0721515}
        tangentMode: 0
      - serializedVersion: 2
        time: 1.2666662
        value: {x: -0.002424604, y: -0.0021956959, z: -0.1607181, w: 0.9869949}
        inSlope: {x: -0.0015955247, y: 0.0005860074, z: 0.3006965, w: 0.049297262}
        outSlope: {x: -0.0015955247, y: 0.0005860074, z: 0.3006965, w: 0.049297262}
        tangentMode: 0
      - serializedVersion: 2
        time: 1.2833328
        value: {x: -0.0024477807, y: -0.0021883014, z: -0.15678076, w: 0.9876279}
        inSlope: {x: -0.0011730555, y: 0.00028264505, z: 0.16616434, w: 0.026575353}
        outSlope: {x: -0.0011730555, y: 0.00028264505, z: 0.16616434, w: 0.026575353}
        tangentMode: 0
      - serializedVersion: 2
        time: 1.2999995
        value: {x: -0.0024637058, y: -0.0021862744, z: -0.15517929, w: 0.98788077}
        inSlope: {x: -0.0007244416, y: -0.000056577897, z: 0.020466615, w: 0.0032401117}
        outSlope: {x: -0.0007244416, y: -0.000056577897, z: 0.020466615, w: 0.0032401117}
        tangentMode: 0
      - serializedVersion: 2
        time: 1.3166661
        value: {x: -0.0024719287, y: -0.0021901873, z: -0.15609854, w: 0.9877359}
        inSlope: {x: -0.000247441, y: -0.00042813405, z: -0.13623087, w: -0.02172055}
        outSlope: {x: -0.000247441, y: -0.00042813405, z: -0.13623087, w: -0.02172055}
        tangentMode: 0
      - serializedVersion: 2
        time: 1.3333328
        value: {x: -0.0024719539, y: -0.0022005455, z: -0.15972032, w: 0.98715675}
        inSlope: {x: 0.0002609359, y: -0.00082755304, z: -0.3037247, w: -0.049599454}
        outSlope: {x: 0.0002609359, y: -0.00082755304, z: -0.3037247, w: -0.049599454}
        tangentMode: 0
      - serializedVersion: 2
        time: 1.3499994
        value: {x: -0.0024632309, y: -0.0022177724, z: -0.16622269, w: 0.9860826}
        inSlope: {x: 0.0008043073, y: -0.0012492959, z: -0.4817368, w: -0.08197911}
        outSlope: {x: 0.0008043073, y: -0.0012492959, z: -0.4817368, w: -0.08197911}
        tangentMode: 0
      - serializedVersion: 2
        time: 1.3666661
        value: {x: -0.0024451436, y: -0.0022421887, z: -0.1757782, w: 0.9844241}
        inSlope: {x: 0.0005069183, y: -0.00073890714, z: -0.28668013, w: -0.049756814}
        outSlope: {x: 0.0005069183, y: -0.00073890714, z: -0.28668013, w: -0.049756814}
        tangentMode: 0
      - serializedVersion: 2
        time: 1.3833333
        value: {x: -0.0024463336, y: -0.0022424026, z: -0.17577869, w: 0.98442405}
        inSlope: {x: -0.00007139736, y: -0.000012837835, z: -0.000029503271, w: -0.0000035761543}
        outSlope: {x: -0.00007139736, y: -0.000012837835, z: -0.000029503271, w: -0.0000035761543}
        tangentMode: 0
      m_PreInfinity: 2
      m_PostInfinity: 2
      m_RotationOrder: 4
    path: 
  m_CompressedRotationCurves: []
  m_EulerCurves: []
  m_PositionCurves:
  - curve:
      serializedVersion: 2
      m_Curve:
      - serializedVersion: 2
        time: 0
        value: {x: 1.04, y: 0.48, z: 0}
        inSlope: {x: 0, y: 0, z: 0}
        outSlope: {x: 0, y: 0, z: 0}
        tangentMode: 0
      - serializedVersion: 2
        time: 1
        value: {x: 1.3671436, y: 0.8624247, z: 0}
        inSlope: {x: 5.6782265, y: 6.9308376, z: 0}
        outSlope: {x: 5.6782265, y: 6.9308376, z: 0}
        tangentMode: 0
      - serializedVersion: 2
        time: 1.0333333
        value: {x: 1.5681313, y: 0.8624247, z: 0}
        inSlope: {x: 6.3866396, y: 0, z: 0}
        outSlope: {x: 6.3866396, y: 0, z: 0}
        tangentMode: 0
      m_PreInfinity: 2
      m_PostInfinity: 2
      m_RotationOrder: 4
    path: 
  m_ScaleCurves: []
  m_FloatCurves: []
  m_PPtrCurves: []
  m_SampleRate: 60
  m_WrapMode: 0
  m_Bounds:
    m_Center: {x: 0, y: 0, z: 0}
    m_Extent: {x: 0, y: 0, z: 0}
  m_ClipBindingConstant:
    genericBindings: []
    pptrCurveMapping: []
  m_AnimationClipSettings:
    serializedVersion: 2
    m_AdditiveReferencePoseClip: {fileID: 0}
    m_AdditiveReferencePoseTime: 0
    m_StartTime: 0
    m_StopTime: 1.3833333
    m_OrientationOffsetY: 0
    m_Level: 0
    m_CycleOffset: 0
    m_HasAdditiveReferencePose: 0
    m_LoopTime: 1
    m_LoopBlend: 0
    m_LoopBlendOrientation: 0
    m_LoopBlendPositionY: 0
    m_LoopBlendPositionXZ: 0
    m_KeepOriginalOrientation: 0
    m_KeepOriginalPositionY: 1
    m_KeepOriginalPositionXZ: 0
    m_HeightFromFeet: 0
    m_Mirror: 0
  m_EditorCurves:
  - curve:
      serializedVersion: 2
      m_Curve:
      - serializedVersion: 2
        time: 0
        value: 1.04
        inSlope: 0
        outSlope: 0
        tangentMode: 136
      - serializedVersion: 2
        time: 1.0333333
        value: 1.5681313
        inSlope: 6.3866396
        outSlope: 6.3866396
        tangentMode: 0
      m_PreInfinity: 2
      m_PostInfinity: 2
      m_RotationOrder: 4
    attribute: m_LocalPosition.x
    path: 
    classID: 4
    script: {fileID: 0}
  - curve:
      serializedVersion: 2
      m_Curve:
      - serializedVersion: 2
        time: 0
        value: 0.48
        inSlope: 0
        outSlope: 0
        tangentMode: 136
      - serializedVersion: 2
        time: 1
        value: 0.8624247
        inSlope: 6.9308376
        outSlope: 6.9308376
        tangentMode: 0
      m_PreInfinity: 2
      m_PostInfinity: 2
      m_RotationOrder: 4
    attribute: m_LocalPosition.y
    path: 
    classID: 4
    script: {fileID: 0}
  - curve:
      serializedVersion: 2
      m_Curve:
      - serializedVersion: 2
        time: 0
        value: 0
        inSlope: 0
        outSlope: 0
        tangentMode: 136
      - serializedVersion: 2
        time: 1
        value: 0
        inSlope: 0
        outSlope: 0
        tangentMode: 136
      m_PreInfinity: 2
      m_PostInfinity: 2
      m_RotationOrder: 4
    attribute: m_LocalPosition.z
    path: 
    classID: 4
    script: {fileID: 0}
  - curve:
      serializedVersion: 2
      m_Curve:
      - serializedVersion: 2
        time: 0
        value: 0
        inSlope: -0.00007294985
        outSlope: -0.00007294985
        tangentMode: 0
      - serializedVersion: 2
        time: 0.016666668
        value: -0.0000012158309
        inSlope: -0.00014461364
        outSlope: -0.00014461364
        tangentMode: 0
      - serializedVersion: 2
        time: 0.033333335
        value: -0.000004820455
        inSlope: -0.00028586463
        outSlope: -0.00028586463
        tangentMode: 0
      - serializedVersion: 2
        time: 0.050000004
        value: -0.000010744653
        inSlope: -0.00042277673
        outSlope: -0.00042277673
        tangentMode: 0
      - serializedVersion: 2
        time: 0.06666667
        value: -0.000018913013
        inSlope: -0.000554992
        outSlope: -0.000554992
        tangentMode: 0
      - serializedVersion: 2
        time: 0.083333336
        value: -0.000029244386
        inSlope: -0.00068217644
        outSlope: -0.00068217644
        tangentMode: 0
      - serializedVersion: 2
        time: 0.1
        value: -0.000041652227
        inSlope: -0.0008040181
        outSlope: -0.0008040181
        tangentMode: 0
      - serializedVersion: 2
        time: 0.11666667
        value: -0.000056044988
        inSlope: -0.00092022686
        outSlope: -0.00092022686
        tangentMode: 0
      - serializedVersion: 2
        time: 0.13333334
        value: -0.00007232646
        inSlope: -0.0010305312
        outSlope: -0.0010305312
        tangentMode: 0
      - serializedVersion: 2
        time: 0.15
        value: -0.00009039603
        inSlope: -0.0011346773
        outSlope: -0.0011346773
        tangentMode: 0
      - serializedVersion: 2
        time: 0.16666667
        value: -0.000110149034
        inSlope: -0.0012324285
        outSlope: -0.0012324285
        tangentMode: 0
      - serializedVersion: 2
        time: 0.18333334
        value: -0.00013147698
        inSlope: -0.001323565
        outSlope: -0.001323565
        tangentMode: 0
      - serializedVersion: 2
        time: 0.2
        value: -0.00015426787
        inSlope: -0.001407884
        outSlope: -0.001407884
        tangentMode: 0
      - serializedVersion: 2
        time: 0.21666667
        value: -0.00017840644
        inSlope: -0.0014851969
        outSlope: -0.0014851969
        tangentMode: 0
      - serializedVersion: 2
        time: 0.23333333
        value: -0.00020377443
        inSlope: -0.001555332
        outSlope: -0.001555332
        tangentMode: 0
      - serializedVersion: 2
        time: 0.25
        value: -0.00023025084
        inSlope: -0.0016181319
        outSlope: -0.0016181319
        tangentMode: 0
      - serializedVersion: 2
        time: 0.26666668
        value: -0.00025771218
        inSlope: -0.0016734591
        outSlope: -0.0016734591
        tangentMode: 0
      - serializedVersion: 2
        time: 0.28333336
        value: -0.00028603285
        inSlope: -0.0017211884
        outSlope: -0.0017211884
        tangentMode: 0
      - serializedVersion: 2
        time: 0.30000004
        value: -0.00031508517
        inSlope: -0.0017612127
        outSlope: -0.0017612127
        tangentMode: 0
      - serializedVersion: 2
        time: 0.31666672
        value: -0.00034474
        inSlope: -0.0017934464
        outSlope: -0.0017934464
        tangentMode: 0
      - serializedVersion: 2
        time: 0.3333334
        value: -0.00037486677
        inSlope: -0.0018178159
        outSlope: -0.0018178159
        tangentMode: 0
      - serializedVersion: 2
        time: 0.35000008
        value: -0.0004053339
        inSlope: -0.001834274
        outSlope: -0.001834274
        tangentMode: 0
      - serializedVersion: 2
        time: 0.36666676
        value: -0.0004360093
        inSlope: -0.0018427887
        outSlope: -0.0018427887
        tangentMode: 0
      - serializedVersion: 2
        time: 0.38333344
        value: -0.00046676025
        inSlope: -0.0018433474
        outSlope: -0.0018433474
        tangentMode: 0
      - serializedVersion: 2
        time: 0.40000013
        value: -0.00049745425
        inSlope: -0.0018359636
        outSlope: -0.0018359636
        tangentMode: 0
      - serializedVersion: 2
        time: 0.4166668
        value: -0.0005279591
        inSlope: -0.0018206753
        outSlope: -0.0018206753
        tangentMode: 0
      - serializedVersion: 2
        time: 0.4333335
        value: -0.0005581435
        inSlope: -0.0017975308
        outSlope: -0.0017975308
        tangentMode: 0
      - serializedVersion: 2
        time: 0.45000017
        value: -0.0005878768
        inSlope: -0.0017666068
        outSlope: -0.0017666068
        tangentMode: 0
      - serializedVersion: 2
        time: 0.46666685
        value: -0.0006170304
        inSlope: -0.0017280204
        outSlope: -0.0017280204
        tangentMode: 0
      - serializedVersion: 2
        time: 0.48333353
        value: -0.00064547756
        inSlope: -0.0016818953
        outSlope: -0.0016818953
        tangentMode: 0
      - serializedVersion: 2
        time: 0.5000002
        value: -0.0006730936
        inSlope: -0.0016283784
        outSlope: -0.0016283784
        tangentMode: 0
      - serializedVersion: 2
        time: 0.5166668
        value: -0.0006997568
        inSlope: -0.0015676619
        outSlope: -0.0015676619
        tangentMode: 0
      - serializedVersion: 2
        time: 0.5333335
        value: -0.00072534895
        inSlope: -0.0014999483
        outSlope: -0.0014999483
        tangentMode: 0
      - serializedVersion: 2
        time: 0.55000013
        value: -0.000749755
        inSlope: -0.0014254628
        outSlope: -0.0014254628
        tangentMode: 0
      - serializedVersion: 2
        time: 0.5666668
        value: -0.0007728643
        inSlope: -0.0013444743
        outSlope: -0.0013444743
        tangentMode: 0
      - serializedVersion: 2
        time: 0.58333343
        value: -0.0007945708
        inSlope: -0.001257264
        outSlope: -0.001257264
        tangentMode: 0
      - serializedVersion: 2
        time: 0.6000001
        value: -0.0008147731
        inSlope: -0.0011641234
        outSlope: -0.0011641234
        tangentMode: 0
      - serializedVersion: 2
        time: 0.61666673
        value: -0.00083337486
        inSlope: -0.0010653932
        outSlope: -0.0010653932
        tangentMode: 0
      - serializedVersion: 2
        time: 0.6333334
        value: -0.00085028616
        inSlope: -0.00096146285
        outSlope: -0.00096146285
        tangentMode: 0
      - serializedVersion: 2
        time: 0.65000004
        value: -0.0008654236
        inSlope: -0.00085269357
        outSlope: -0.00085269357
        tangentMode: 0
      - serializedVersion: 2
        time: 0.6666667
        value: -0.00087870925
        inSlope: -0.00073947315
        outSlope: -0.00073947315
        tangentMode: 0
      - serializedVersion: 2
        time: 0.68333334
        value: -0.00089007267
        inSlope: -0.00062224513
        outSlope: -0.00062224513
        tangentMode: 0
      - serializedVersion: 2
        time: 0.7
        value: -0.00089945074
        inSlope: -0.00050146354
        outSlope: -0.00050146354
        tangentMode: 0
      - serializedVersion: 2
        time: 0.71666664
        value: -0.0009067881
        inSlope: -0.0003775981
        outSlope: -0.0003775981
        tangentMode: 0
      - serializedVersion: 2
        time: 0.7333333
        value: -0.0009120373
        inSlope: -0.0002511238
        outSlope: -0.0002511238
        tangentMode: 0
      - serializedVersion: 2
        time: 0.74999994
        value: -0.0009151589
        inSlope: -0.00022033599
        outSlope: -0.00022033599
        tangentMode: 0
      - serializedVersion: 2
        time: 0.7666666
        value: -0.00091938186
        inSlope: -0.00039029846
        outSlope: -0.00039029846
        tangentMode: 0
      - serializedVersion: 2
        time: 0.78333324
        value: -0.0009281688
        inSlope: -0.00067201623
        outSlope: -0.00067201623
        tangentMode: 0
      - serializedVersion: 2
        time: 0.7999999
        value: -0.0009417824
        inSlope: -0.000967194
        outSlope: -0.000967194
        tangentMode: 0
      - serializedVersion: 2
        time: 0.81666654
        value: -0.0009604086
        inSlope: -0.0012713543
        outSlope: -0.0012713543
        tangentMode: 0
      - serializedVersion: 2
        time: 0.8333332
        value: -0.0009841608
        inSlope: -0.0015801195
        outSlope: -0.0015801195
        tangentMode: 0
      - serializedVersion: 2
        time: 0.84999985
        value: -0.0010130792
        inSlope: -0.0018891605
        outSlope: -0.0018891605
        tangentMode: 0
      - serializedVersion: 2
        time: 0.8666665
        value: -0.0010471328
        inSlope: -0.0021942656
        outSlope: -0.0021942656
        tangentMode: 0
      - serializedVersion: 2
        time: 0.88333315
        value: -0.0010862213
        inSlope: -0.0024913591
        outSlope: -0.0024913591
        tangentMode: 0
      - serializedVersion: 2
        time: 0.8999998
        value: -0.001130178
        inSlope: -0.0027764873
        outSlope: -0.0027764873
        tangentMode: 0
      - serializedVersion: 2
        time: 0.91666645
        value: -0.0011787708
        inSlope: -0.0030458365
        outSlope: -0.0030458365
        tangentMode: 0
      - serializedVersion: 2
        time: 0.9333331
        value: -0.0012317058
        inSlope: -0.0032958025
        outSlope: -0.0032958025
        tangentMode: 0
      - serializedVersion: 2
        time: 0.94999975
        value: -0.0012886308
        inSlope: -0.003523036
        outSlope: -0.003523036
        tangentMode: 0
      - serializedVersion: 2
        time: 0.9666664
        value: -0.0013491402
        inSlope: -0.0037244777
        outSlope: -0.0037244777
        tangentMode: 0
      - serializedVersion: 2
        time: 0.98333305
        value: -0.0014127799
        inSlope: -0.0038972953
        outSlope: -0.0038972953
        tangentMode: 0
      - serializedVersion: 2
        time: 0.9999997
        value: -0.0014790499
        inSlope: -0.0040391237
        outSlope: -0.0040391237
        tangentMode: 0
      - serializedVersion: 2
        time: 1.0166664
        value: -0.0015474175
        inSlope: -0.004147949
        outSlope: -0.004147949
        tangentMode: 0
      - serializedVersion: 2
        time: 1.0333331
        value: -0.001617315
        inSlope: -0.0042220945
        outSlope: -0.0042220945
        tangentMode: 0
      - serializedVersion: 2
        time: 1.0499997
        value: -0.0016881538
        inSlope: -0.004260407
        outSlope: -0.004260407
        tangentMode: 0
      - serializedVersion: 2
        time: 1.0666664
        value: -0.0017593284
        inSlope: -0.004262132
        outSlope: -0.004262132
        tangentMode: 0
      - serializedVersion: 2
        time: 1.083333
        value: -0.0018302248
        inSlope: -0.004226998
        outSlope: -0.004226998
        tangentMode: 0
      - serializedVersion: 2
        time: 1.0999997
        value: -0.0019002282
        inSlope: -0.0041550356
        outSlope: -0.0041550356
        tangentMode: 0
      - serializedVersion: 2
        time: 1.1166663
        value: -0.0019687258
        inSlope: -0.0040467307
        outSlope: -0.0040467307
        tangentMode: 0
      - serializedVersion: 2
        time: 1.133333
        value: -0.002035119
        inSlope: -0.0039029461
        outSlope: -0.0039029461
        tangentMode: 0
      - serializedVersion: 2
        time: 1.1499996
        value: -0.002098824
        inSlope: -0.003724726
        outSlope: -0.003724726
        tangentMode: 0
      - serializedVersion: 2
        time: 1.1666663
        value: -0.0021592765
        inSlope: -0.0035134316
        outSlope: -0.0035134316
        tangentMode: 0
      - serializedVersion: 2
        time: 1.1833329
        value: -0.0022159382
        inSlope: -0.003270524
        outSlope: -0.003270524
        tangentMode: 0
      - serializedVersion: 2
        time: 1.1999996
        value: -0.0022682939
        inSlope: -0.002997504
        outSlope: -0.002997504
        tangentMode: 0
      - serializedVersion: 2
        time: 1.2166662
        value: -0.002315855
        inSlope: -0.002695902
        outSlope: -0.002695902
        tangentMode: 0
      - serializedVersion: 2
        time: 1.2333329
        value: -0.0023581572
        inSlope: -0.0023622531
        outSlope: -0.0023622531
        tangentMode: 0
      - serializedVersion: 2
        time: 1.2499995
        value: -0.0023945966
        inSlope: -0.001993407
        outSlope: -0.001993407
        tangentMode: 0
      - serializedVersion: 2
        time: 1.2666662
        value: -0.002424604
        inSlope: -0.0015955247
        outSlope: -0.0015955247
        tangentMode: 0
      - serializedVersion: 2
        time: 1.2833328
        value: -0.0024477807
        inSlope: -0.0011730555
        outSlope: -0.0011730555
        tangentMode: 0
      - serializedVersion: 2
        time: 1.2999995
        value: -0.0024637058
        inSlope: -0.0007244416
        outSlope: -0.0007244416
        tangentMode: 0
      - serializedVersion: 2
        time: 1.3166661
        value: -0.0024719287
        inSlope: -0.000247441
        outSlope: -0.000247441
        tangentMode: 0
      - serializedVersion: 2
        time: 1.3333328
        value: -0.0024719539
        inSlope: 0.0002609359
        outSlope: 0.0002609359
        tangentMode: 0
      - serializedVersion: 2
        time: 1.3499994
        value: -0.0024632309
        inSlope: 0.0008043073
        outSlope: 0.0008043073
        tangentMode: 0
      - serializedVersion: 2
        time: 1.3666661
        value: -0.0024451436
        inSlope: 0.0005069183
        outSlope: 0.0005069183
        tangentMode: 0
      - serializedVersion: 2
        time: 1.3833333
        value: -0.0024463336
        inSlope: -0.00007139736
        outSlope: -0.00007139736
        tangentMode: 0
      m_PreInfinity: 2
      m_PostInfinity: 2
      m_RotationOrder: 4
    attribute: m_LocalRotation.x
    path: 
    classID: 4
    script: {fileID: 0}
  - curve:
      serializedVersion: 2
      m_Curve:
      - serializedVersion: 2
        time: 0
        value: 0
        inSlope: -0.000057503876
        outSlope: -0.000057503876
        tangentMode: 0
      - serializedVersion: 2
        time: 0.016666668
        value: -0.000000958398
        inSlope: -0.0001140935
        outSlope: -0.0001140935
        tangentMode: 0
      - serializedVersion: 2
        time: 0.033333335
        value: -0.000003803117
        inSlope: -0.00022608798
        outSlope: -0.00022608798
        tangentMode: 0
      - serializedVersion: 2
        time: 0.050000004
        value: -0.000008494665
        inSlope: -0.0003359458
        outSlope: -0.0003359458
        tangentMode: 0
      - serializedVersion: 2
        time: 0.06666667
        value: -0.00001500131
        inSlope: -0.00044411246
        outSlope: -0.00044411246
        tangentMode: 0
      - serializedVersion: 2
        time: 0.083333336
        value: -0.000023298413
        inSlope: -0.00055099267
        outSlope: -0.00055099267
        tangentMode: 0
      - serializedVersion: 2
        time: 0.1
        value: -0.00003336773
        inSlope: -0.0006569495
        outSlope: -0.0006569495
        tangentMode: 0
      - serializedVersion: 2
        time: 0.11666667
        value: -0.000045196728
        inSlope: -0.0007623057
        outSlope: -0.0007623057
        tangentMode: 0
      - serializedVersion: 2
        time: 0.13333334
        value: -0.000058777925
        inSlope: -0.000867342
        outSlope: -0.000867342
        tangentMode: 0
      - serializedVersion: 2
        time: 0.15
        value: -0.00007410813
        inSlope: -0.00097229856
        outSlope: -0.00097229856
        tangentMode: 0
      - serializedVersion: 2
        time: 0.16666667
        value: -0.000091187874
        inSlope: -0.0010773747
        outSlope: -0.0010773747
        tangentMode: 0
      - serializedVersion: 2
        time: 0.18333334
        value: -0.00011002062
        inSlope: -0.0011827303
        outSlope: -0.0011827303
        tangentMode: 0
      - serializedVersion: 2
        time: 0.2
        value: -0.00013061221
        inSlope: -0.0012884843
        outSlope: -0.0012884843
        tangentMode: 0
      - serializedVersion: 2
        time: 0.21666667
        value: -0.0001529701
        inSlope: -0.0013947191
        outSlope: -0.0013947191
        tangentMode: 0
      - serializedVersion: 2
        time: 0.23333333
        value: -0.00017710285
        inSlope: -0.0015014787
        outSlope: -0.0015014787
        tangentMode: 0
      - serializedVersion: 2
        time: 0.25
        value: -0.00020301939
        inSlope: -0.0016087694
        outSlope: -0.0016087694
        tangentMode: 0
      - serializedVersion: 2
        time: 0.26666668
        value: -0.00023072852
        inSlope: -0.0017165644
        outSlope: -0.0017165644
        tangentMode: 0
      - serializedVersion: 2
        time: 0.28333336
        value: -0.00026023824
        inSlope: -0.0018247986
        outSlope: -0.0018247986
        tangentMode: 0
      - serializedVersion: 2
        time: 0.30000004
        value: -0.0002915552
        inSlope: -0.0019333796
        outSlope: -0.0019333796
        tangentMode: 0
      - serializedVersion: 2
        time: 0.31666672
        value: -0.00032468428
        inSlope: -0.00204218
        outSlope: -0.00204218
        tangentMode: 0
      - serializedVersion: 2
        time: 0.3333334
        value: -0.0003596279
        inSlope: -0.0021510418
        outSlope: -0.0021510418
        tangentMode: 0
      - serializedVersion: 2
        time: 0.35000008
        value: -0.00039638573
        inSlope: -0.0022597837
        outSlope: -0.0022597837
        tangentMode: 0
      - serializedVersion: 2
        time: 0.36666676
        value: -0.0004349541
        inSlope: -0.0023681894
        outSlope: -0.0023681894
        tangentMode: 0
      - serializedVersion: 2
        time: 0.38333344
        value: -0.00047532545
        inSlope: -0.0024760235
        outSlope: -0.0024760235
        tangentMode: 0
      - serializedVersion: 2
        time: 0.40000013
        value: -0.0005174883
        inSlope: -0.0025830404
        outSlope: -0.0025830404
        tangentMode: 0
      - serializedVersion: 2
        time: 0.4166668
        value: -0.00056142686
        inSlope: -0.0026889525
        outSlope: -0.0026889525
        tangentMode: 0
      - serializedVersion: 2
        time: 0.4333335
        value: -0.0006071201
        inSlope: -0.002793459
        outSlope: -0.002793459
        tangentMode: 0
      - serializedVersion: 2
        time: 0.45000017
        value: -0.00065454224
        inSlope: -0.0028962472
        outSlope: -0.0028962472
        tangentMode: 0
      - serializedVersion: 2
        time: 0.46666685
        value: -0.00070366176
        inSlope: -0.0029969993
        outSlope: -0.0029969993
        tangentMode: 0
      - serializedVersion: 2
        time: 0.48333353
        value: -0.0007544423
        inSlope: -0.0030953796
        outSlope: -0.0030953796
        tangentMode: 0
      - serializedVersion: 2
        time: 0.5000002
        value: -0.00080684107
        inSlope: -0.0031910161
        outSlope: -0.0031910161
        tangentMode: 0
      - serializedVersion: 2
        time: 0.5166668
        value: -0.0008608094
        inSlope: -0.003283572
        outSlope: -0.003283572
        tangentMode: 0
      - serializedVersion: 2
        time: 0.5333335
        value: -0.00091629336
        inSlope: -0.0033726906
        outSlope: -0.0033726906
        tangentMode: 0
      - serializedVersion: 2
        time: 0.55000013
        value: -0.0009732323
        inSlope: -0.0034579923
        outSlope: -0.0034579923
        tangentMode: 0
      - serializedVersion: 2
        time: 0.5666668
        value: -0.0010315597
        inSlope: -0.003539126
        outSlope: -0.003539126
        tangentMode: 0
      - serializedVersion: 2
        time: 0.58333343
        value: -0.0010912031
        inSlope: -0.0036157295
        outSlope: -0.0036157295
        tangentMode: 0
      - serializedVersion: 2
        time: 0.6000001
        value: -0.0011520839
        inSlope: -0.0036874402
        outSlope: -0.0036874402
        tangentMode: 0
      - serializedVersion: 2
        time: 0.61666673
        value: -0.0012141176
        inSlope: -0.0037539122
        outSlope: -0.0037539122
        tangentMode: 0
      - serializedVersion: 2
        time: 0.6333334
        value: -0.0012772141
        inSlope: -0.003814807
        outSlope: -0.003814807
        tangentMode: 0
      - serializedVersion: 2
        time: 0.65000004
        value: -0.0013412777
        inSlope: -0.0038697887
        outSlope: -0.0038697887
        tangentMode: 0
      - serializedVersion: 2
        time: 0.6666667
        value: -0.001406207
        inSlope: -0.0039185537
        outSlope: -0.0039185537
        tangentMode: 0
      - serializedVersion: 2
        time: 0.68333334
        value: -0.0014718961
        inSlope: -0.003960802
        outSlope: -0.003960802
        tangentMode: 0
      - serializedVersion: 2
        time: 0.7
        value: -0.0015382336
        inSlope: -0.0039962227
        outSlope: -0.0039962227
        tangentMode: 0
      - serializedVersion: 2
        time: 0.71666664
        value: -0.0016051034
        inSlope: -0.0040245815
        outSlope: -0.0040245815
        tangentMode: 0
      - serializedVersion: 2
        time: 0.7333333
        value: -0.0016723862
        inSlope: -0.004045634
        outSlope: -0.004045634
        tangentMode: 0
      - serializedVersion: 2
        time: 0.74999994
        value: -0.0017399577
        inSlope: -0.00400948
        outSlope: -0.00400948
        tangentMode: 0
      - serializedVersion: 2
        time: 0.7666666
        value: -0.0018060354
        inSlope: -0.0038690795
        outSlope: -0.0038690795
        tangentMode: 0
      - serializedVersion: 2
        time: 0.78333324
        value: -0.0018689269
        inSlope: -0.0036775635
        outSlope: -0.0036775635
        tangentMode: 0
      - serializedVersion: 2
        time: 0.7999999
        value: -0.0019286207
        inSlope: -0.003484521
        outSlope: -0.003484521
        tangentMode: 0
      - serializedVersion: 2
        time: 0.81666654
        value: -0.0019850775
        inSlope: -0.0032883496
        outSlope: -0.0032883496
        tangentMode: 0
      - serializedVersion: 2
        time: 0.8333332
        value: -0.0020382323
        inSlope: -0.0030875257
        outSlope: -0.0030875257
        tangentMode: 0
      - serializedVersion: 2
        time: 0.84999985
        value: -0.002087995
        inSlope: -0.0028807512
        outSlope: -0.0028807512
        tangentMode: 0
      - serializedVersion: 2
        time: 0.8666665
        value: -0.0021342572
        inSlope: -0.0026670052
        outSlope: -0.0026670052
        tangentMode: 0
      - serializedVersion: 2
        time: 0.88333315
        value: -0.002176895
        inSlope: -0.0024456251
        outSlope: -0.0024456251
        tangentMode: 0
      - serializedVersion: 2
        time: 0.8999998
        value: -0.002215778
        inSlope: -0.0022163521
        outSlope: -0.0022163521
        tangentMode: 0
      - serializedVersion: 2
        time: 0.91666645
        value: -0.0022507734
        inSlope: -0.0019793604
        outSlope: -0.0019793604
        tangentMode: 0
      - serializedVersion: 2
        time: 0.9333331
        value: -0.0022817566
        inSlope: -0.001735335
        outSlope: -0.001735335
        tangentMode: 0
      - serializedVersion: 2
        time: 0.94999975
        value: -0.0023086178
        inSlope: -0.0014853724
        outSlope: -0.0014853724
        tangentMode: 0
      - serializedVersion: 2
        time: 0.9666664
        value: -0.002331269
        inSlope: -0.0012310792
        outSlope: -0.0012310792
        tangentMode: 0
      - serializedVersion: 2
        time: 0.98333305
        value: -0.0023496537
        inSlope: -0.00097450893
        outSlope: -0.00097450893
        tangentMode: 0
      - serializedVersion: 2
        time: 0.9999997
        value: -0.0023637526
        inSlope: -0.00071809127
        outSlope: -0.00071809127
        tangentMode: 0
      - serializedVersion: 2
        time: 1.0166664
        value: -0.0023735901
        inSlope: -0.00046465016
        outSlope: -0.00046465016
        tangentMode: 0
      - serializedVersion: 2
        time: 1.0333331
        value: -0.002379241
        inSlope: -0.00021728707
        outSlope: -0.00021728707
        tangentMode: 0
      - serializedVersion: 2
        time: 1.0499997
        value: -0.002380833
        inSlope: 0.00002066141
        outSlope: 0.00002066141
        tangentMode: 0
      - serializedVersion: 2
        time: 1.0666664
        value: -0.0023785522
        inSlope: 0.00024568778
        outSlope: 0.00024568778
        tangentMode: 0
      - serializedVersion: 2
        time: 1.083333
        value: -0.0023726434
        inSlope: 0.00045422275
        outSlope: 0.00045422275
        tangentMode: 0
      - serializedVersion: 2
        time: 1.0999997
        value: -0.0023634115
        inSlope: 0.0006427319
        outSlope: 0.0006427319
        tangentMode: 0
      - serializedVersion: 2
        time: 1.1166663
        value: -0.002351219
        inSlope: 0.0008077578
        outSlope: 0.0008077578
        tangentMode: 0
      - serializedVersion: 2
        time: 1.133333
        value: -0.0023364862
        inSlope: 0.0009460244
        outSlope: 0.0009460244
        tangentMode: 0
      - serializedVersion: 2
        time: 1.1499996
        value: -0.002319685
        inSlope: 0.0010545701
        outSlope: 0.0010545701
        tangentMode: 0
      - serializedVersion: 2
        time: 1.1666663
        value: -0.002301334
        inSlope: 0.0011307828
        outSlope: 0.0011307828
        tangentMode: 0
      - serializedVersion: 2
        time: 1.1833329
        value: -0.0022819922
        inSlope: 0.0011724269
        outSlope: 0.0011724269
        tangentMode: 0
      - serializedVersion: 2
        time: 1.1999996
        value: -0.002262253
        inSlope: 0.0011778262
        outSlope: 0.0011778262
        tangentMode: 0
      - serializedVersion: 2
        time: 1.2166662
        value: -0.0022427314
        inSlope: 0.0011458562
        outSlope: 0.0011458562
        tangentMode: 0
      - serializedVersion: 2
        time: 1.2333329
        value: -0.002224058
        inSlope: 0.0010468937
        outSlope: 0.0010468937
        tangentMode: 0
      - serializedVersion: 2
        time: 1.2499995
        value: -0.002207835
        inSlope: 0.0008508618
        outSlope: 0.0008508618
        tangentMode: 0
      - serializedVersion: 2
        time: 1.2666662
        value: -0.0021956959
        inSlope: 0.0005860074
        outSlope: 0.0005860074
        tangentMode: 0
      - serializedVersion: 2
        time: 1.2833328
        value: -0.0021883014
        inSlope: 0.00028264505
        outSlope: 0.00028264505
        tangentMode: 0
      - serializedVersion: 2
        time: 1.2999995
        value: -0.0021862744
        inSlope: -0.000056577897
        outSlope: -0.000056577897
        tangentMode: 0
      - serializedVersion: 2
        time: 1.3166661
        value: -0.0021901873
        inSlope: -0.00042813405
        outSlope: -0.00042813405
        tangentMode: 0
      - serializedVersion: 2
        time: 1.3333328
        value: -0.0022005455
        inSlope: -0.00082755304
        outSlope: -0.00082755304
        tangentMode: 0
      - serializedVersion: 2
        time: 1.3499994
        value: -0.0022177724
        inSlope: -0.0012492959
        outSlope: -0.0012492959
        tangentMode: 0
      - serializedVersion: 2
        time: 1.3666661
        value: -0.0022421887
        inSlope: -0.00073890714
        outSlope: -0.00073890714
        tangentMode: 0
      - serializedVersion: 2
        time: 1.3833333
        value: -0.0022424026
        inSlope: -0.000012837835
        outSlope: -0.000012837835
        tangentMode: 0
      m_PreInfinity: 2
      m_PostInfinity: 2
      m_RotationOrder: 4
    attribute: m_LocalRotation.y
    path: 
    classID: 4
    script: {fileID: 0}
  - curve:
      serializedVersion: 2
      m_Curve:
      - serializedVersion: 2
        time: 0
        value: 0.005763581
        inSlope: -0.018405065
        outSlope: -0.018405065
        tangentMode: 0
      - serializedVersion: 2
        time: 0.016666668
        value: 0.00545683
        inSlope: -0.036584225
        outSlope: -0.036584225
        tangentMode: 0
      - serializedVersion: 2
        time: 0.033333335
        value: 0.004544107
        inSlope: -0.07260366
        outSlope: -0.07260366
        tangentMode: 0
      - serializedVersion: 2
        time: 0.050000004
        value: 0.0030367076
        inSlope: -0.10794534
        outSlope: -0.10794534
        tangentMode: 0
      - serializedVersion: 2
        time: 0.06666667
        value: 0.0009459284
        inSlope: -0.14260903
        outSlope: -0.14260903
        tangentMode: 0
      - serializedVersion: 2
        time: 0.083333336
        value: -0.0017169263
        inSlope: -0.17659386
        outSlope: -0.17659386
        tangentMode: 0
      - serializedVersion: 2
        time: 0.1
        value: -0.004940533
        inSlope: -0.20989835
        outSlope: -0.20989835
        tangentMode: 0
      - serializedVersion: 2
        time: 0.11666667
        value: -0.008713538
        inSlope: -0.24252021
        outSlope: -0.24252021
        tangentMode: 0
      - serializedVersion: 2
        time: 0.13333334
        value: -0.013024542
        inSlope: -0.27445626
        outSlope: -0.27445626
        tangentMode: 0
      - serializedVersion: 2
        time: 0.15
        value: -0.017862082
        inSlope: -0.30570275
        outSlope: -0.30570275
        tangentMode: 0
      - serializedVersion: 2
        time: 0.16666667
        value: -0.023214633
        inSlope: -0.33625466
        outSlope: -0.33625466
        tangentMode: 0
      - serializedVersion: 2
        time: 0.18333334
        value: -0.02907057
        inSlope: -0.36610585
        outSlope: -0.36610585
        tangentMode: 0
      - serializedVersion: 2
        time: 0.2
        value: -0.03541816
        inSlope: -0.3952496
        outSlope: -0.3952496
        tangentMode: 0
      - serializedVersion: 2
        time: 0.21666667
        value: -0.042245556
        inSlope: -0.42367816
        outSlope: -0.42367816
        tangentMode: 0
      - serializedVersion: 2
        time: 0.23333333
        value: -0.049540766
        inSlope: -0.4513825
        outSlope: -0.4513825
        tangentMode: 0
      - serializedVersion: 2
        time: 0.25
        value: -0.057291638
        inSlope: -0.4783528
        outSlope: -0.4783528
        tangentMode: 0
      - serializedVersion: 2
        time: 0.26666668
        value: -0.065485865
        inSlope: -0.50457823
        outSlope: -0.50457823
        tangentMode: 0
      - serializedVersion: 2
        time: 0.28333336
        value: -0.074110925
        inSlope: -0.5300474
        outSlope: -0.5300474
        tangentMode: 0
      - serializedVersion: 2
        time: 0.30000004
        value: -0.08315413
        inSlope: -0.5547492
        outSlope: -0.5547492
        tangentMode: 0
      - serializedVersion: 2
        time: 0.31666672
        value: -0.09260258
        inSlope: -0.57866913
        outSlope: -0.57866913
        tangentMode: 0
      - serializedVersion: 2
        time: 0.3333334
        value: -0.102443114
        inSlope: -0.601794
        outSlope: -0.601794
        tangentMode: 0
      - serializedVersion: 2
        time: 0.35000008
        value: -0.1126624
        inSlope: -0.6241113
        outSlope: -0.6241113
        tangentMode: 0
      - serializedVersion: 2
        time: 0.36666676
        value: -0.12324684
        inSlope: -0.64560515
        outSlope: -0.64560515
        tangentMode: 0
      - serializedVersion: 2
        time: 0.38333344
        value: -0.13418259
        inSlope: -0.66626173
        outSlope: -0.66626173
        tangentMode: 0
      - serializedVersion: 2
        time: 0.40000013
        value: -0.14545558
        inSlope: -0.68606555
        outSlope: -0.68606555
        tangentMode: 0
      - serializedVersion: 2
        time: 0.4166668
        value: -0.15705146
        inSlope: -0.70500106
        outSlope: -0.70500106
        tangentMode: 0
      - serializedVersion: 2
        time: 0.4333335
        value: -0.16895564
        inSlope: -0.7230559
        outSlope: -0.7230559
        tangentMode: 0
      - serializedVersion: 2
        time: 0.45000017
        value: -0.18115334
        inSlope: -0.7402131
        outSlope: -0.7402131
        tangentMode: 0
      - serializedVersion: 2
        time: 0.46666685
        value: -0.19362943
        inSlope: -0.7564583
        outSlope: -0.7564583
        tangentMode: 0
      - serializedVersion: 2
        time: 0.48333353
        value: -0.20636864
        inSlope: -0.7717811
        outSlope: -0.7717811
        tangentMode: 0
      - serializedVersion: 2
        time: 0.5000002
        value: -0.21935546
        inSlope: -0.7861638
        outSlope: -0.7861638
        tangentMode: 0
      - serializedVersion: 2
        time: 0.5166668
        value: -0.23257408
        inSlope: -0.7995963
        outSlope: -0.7995963
        tangentMode: 0
      - serializedVersion: 2
        time: 0.5333335
        value: -0.24600865
        inSlope: -0.8120664
        outSlope: -0.8120664
        tangentMode: 0
      - serializedVersion: 2
        time: 0.55000013
        value: -0.25964293
        inSlope: -0.82356095
        outSlope: -0.82356095
        tangentMode: 0
      - serializedVersion: 2
        time: 0.5666668
        value: -0.27346066
        inSlope: -0.8340757
        outSlope: -0.8340757
        tangentMode: 0
      - serializedVersion: 2
        time: 0.58333343
        value: -0.28744543
        inSlope: -0.84359753
        outSlope: -0.84359753
        tangentMode: 0
      - serializedVersion: 2
        time: 0.6000001
        value: -0.30158055
        inSlope: -0.8521172
        outSlope: -0.8521172
        tangentMode: 0
      - serializedVersion: 2
        time: 0.61666673
        value: -0.3158493
        inSlope: -0.85963273
        outSlope: -0.85963273
        tangentMode: 0
      - serializedVersion: 2
        time: 0.6333334
        value: -0.33023494
        inSlope: -0.8661389
        outSlope: -0.8661389
        tangentMode: 0
      - serializedVersion: 2
        time: 0.65000004
        value: -0.34472057
        inSlope: -0.87162936
        outSlope: -0.87162936
        tangentMode: 0
      - serializedVersion: 2
        time: 0.6666667
        value: -0.35928923
        inSlope: -0.87610686
        outSlope: -0.87610686
        tangentMode: 0
      - serializedVersion: 2
        time: 0.68333334
        value: -0.3739241
        inSlope: -0.87957317
        outSlope: -0.87957317
        tangentMode: 0
      - serializedVersion: 2
        time: 0.7
        value: -0.3886083
        inSlope: -0.8820247
        outSlope: -0.8820247
        tangentMode: 0
      - serializedVersion: 2
        time: 0.71666664
        value: -0.4033249
        inSlope: -0.88346684
        outSlope: -0.88346684
        tangentMode: 0
      - serializedVersion: 2
        time: 0.7333333
        value: -0.41805717
        inSlope: -0.8839067
        outSlope: -0.8839067
        tangentMode: 0
      - serializedVersion: 2
        time: 0.74999994
        value: -0.43278843
        inSlope: -0.8349376
        outSlope: -0.8349376
        tangentMode: 0
      - serializedVersion: 2
        time: 0.7666666
        value: -0.4458884
        inSlope: -0.6929977
        outSlope: -0.6929977
        tangentMode: 0
      - serializedVersion: 2
        time: 0.78333324
        value: -0.45588833
        inSlope: -0.51342094
        outSlope: -0.51342094
        tangentMode: 0
      - serializedVersion: 2
        time: 0.7999999
        value: -0.4630024
        inSlope: -0.3462279
        outSlope: -0.3462279
        tangentMode: 0
      - serializedVersion: 2
        time: 0.81666654
        value: -0.46742925
        inSlope: -0.19052285
        outSlope: -0.19052285
        tangentMode: 0
      - serializedVersion: 2
        time: 0.8333332
        value: -0.46935317
        inSlope: -0.045521602
        outSlope: -0.045521602
        tangentMode: 0
      - serializedVersion: 2
        time: 0.84999985
        value: -0.46894664
        inSlope: 0.089437455
        outSlope: 0.089437455
        tangentMode: 0
      - serializedVersion: 2
        time: 0.8666665
        value: -0.46637192
        inSlope: 0.2148979
        outSlope: 0.2148979
        tangentMode: 0
      - serializedVersion: 2
        time: 0.88333315
        value: -0.46178338
        inSlope: 0.33125848
        outSlope: 0.33125848
        tangentMode: 0
      - serializedVersion: 2
        time: 0.8999998
        value: -0.45532998
        inSlope: 0.43879372
        outSlope: 0.43879372
        tangentMode: 0
      - serializedVersion: 2
        time: 0.91666645
        value: -0.44715694
        inSlope: 0.537652
        outSlope: 0.537652
        tangentMode: 0
      - serializedVersion: 2
        time: 0.9333331
        value: -0.43740827
        inSlope: 0.6278628
        outSlope: 0.6278628
        tangentMode: 0
      - serializedVersion: 2
        time: 0.94999975
        value: -0.4262282
        inSlope: 0.7093699
        outSlope: 0.7093699
        tangentMode: 0
      - serializedVersion: 2
        time: 0.9666664
        value: -0.41376263
        inSlope: 0.7820265
        outSlope: 0.7820265
        tangentMode: 0
      - serializedVersion: 2
        time: 0.98333305
        value: -0.40016067
        inSlope: 0.8456181
        outSlope: 0.8456181
        tangentMode: 0
      - serializedVersion: 2
        time: 0.9999997
        value: -0.38557538
        inSlope: 0.8998866
        outSlope: 0.8998866
        tangentMode: 0
      - serializedVersion: 2
        time: 1.0166664
        value: -0.37016442
        inSlope: 0.94453555
        outSlope: 0.94453555
        tangentMode: 0
      - serializedVersion: 2
        time: 1.0333331
        value: -0.35409084
        inSlope: 0.97925484
        outSlope: 0.97925484
        tangentMode: 0
      - serializedVersion: 2
        time: 1.0499997
        value: -0.33752263
        inSlope: 1.0037417
        outSlope: 1.0037417
        tangentMode: 0
      - serializedVersion: 2
        time: 1.0666664
        value: -0.32063282
        inSlope: 1.0176945
        outSlope: 1.0176945
        tangentMode: 0
      - serializedVersion: 2
        time: 1.083333
        value: -0.3035995
        inSlope: 1.0208372
        outSlope: 1.0208372
        tangentMode: 0
      - serializedVersion: 2
        time: 1.0999997
        value: -0.28660494
        inSlope: 1.0129273
        outSlope: 1.0129273
        tangentMode: 0
      - serializedVersion: 2
        time: 1.1166663
        value: -0.2698353
        inSlope: 0.9937567
        outSlope: 0.9937567
        tangentMode: 0
      - serializedVersion: 2
        time: 1.133333
        value: -0.25347975
        inSlope: 0.96316564
        outSlope: 0.96316564
        tangentMode: 0
      - serializedVersion: 2
        time: 1.1499996
        value: -0.2377298
        inSlope: 0.9210303
        outSlope: 0.9210303
        tangentMode: 0
      - serializedVersion: 2
        time: 1.1666663
        value: -0.22277877
        inSlope: 0.867273
        outSlope: 0.867273
        tangentMode: 0
      - serializedVersion: 2
        time: 1.1833329
        value: -0.20882073
        inSlope: 0.80185205
        outSlope: 0.80185205
        tangentMode: 0
      - serializedVersion: 2
        time: 1.1999996
        value: -0.19605039
        inSlope: 0.7247648
        outSlope: 0.7247648
        tangentMode: 0
      - serializedVersion: 2
        time: 1.2166662
        value: -0.18466192
        inSlope: 0.63604534
        outSlope: 0.63604534
        tangentMode: 0
      - serializedVersion: 2
        time: 1.2333329
        value: -0.1748489
        inSlope: 0.5357391
        outSlope: 0.5357391
        tangentMode: 0
      - serializedVersion: 2
        time: 1.2499995
        value: -0.16680397
        inSlope: 0.42392445
        outSlope: 0.42392445
        tangentMode: 0
      - serializedVersion: 2
        time: 1.2666662
        value: -0.1607181
        inSlope: 0.3006965
        outSlope: 0.3006965
        tangentMode: 0
      - serializedVersion: 2
        time: 1.2833328
        value: -0.15678076
        inSlope: 0.16616434
        outSlope: 0.16616434
        tangentMode: 0
      - serializedVersion: 2
        time: 1.2999995
        value: -0.15517929
        inSlope: 0.020466615
        outSlope: 0.020466615
        tangentMode: 0
      - serializedVersion: 2
        time: 1.3166661
        value: -0.15609854
        inSlope: -0.13623087
        outSlope: -0.13623087
        tangentMode: 0
      - serializedVersion: 2
        time: 1.3333328
        value: -0.15972032
        inSlope: -0.3037247
        outSlope: -0.3037247
        tangentMode: 0
      - serializedVersion: 2
        time: 1.3499994
        value: -0.16622269
        inSlope: -0.4817368
        outSlope: -0.4817368
        tangentMode: 0
      - serializedVersion: 2
        time: 1.3666661
        value: -0.1757782
        inSlope: -0.28668013
        outSlope: -0.28668013
        tangentMode: 0
      - serializedVersion: 2
        time: 1.3833333
        value: -0.17577869
        inSlope: -0.000029503271
        outSlope: -0.000029503271
        tangentMode: 0
      m_PreInfinity: 2
      m_PostInfinity: 2
      m_RotationOrder: 4
    attribute: m_LocalRotation.z
    path: 
    classID: 4
    script: {fileID: 0}
  - curve:
      serializedVersion: 2
      m_Curve:
      - serializedVersion: 2
        time: 0
        value: 0.9999834
        inSlope: 0.000103712075
        outSlope: 0.000103712075
        tangentMode: 0
      - serializedVersion: 2
        time: 0.016666668
        value: 0.9999851
        inSlope: 0.00018954277
        outSlope: 0.00018954277
        tangentMode: 0
      - serializedVersion: 2
        time: 0.033333335
        value: 0.9999897
        inSlope: 0.00030934808
        outSlope: 0.00030934808
        tangentMode: 0
      - serializedVersion: 2
        time: 0.050000004
        value: 0.9999954
        inSlope: 0.000295043
        outSlope: 0.000295043
        tangentMode: 0
      - serializedVersion: 2
        time: 0.06666667
        value: 0.9999995
        inSlope: 0.00009298326
        outSlope: 0.00009298326
        tangentMode: 0
      - serializedVersion: 2
        time: 0.083333336
        value: 0.9999985
        inSlope: -0.00035226348
        outSlope: -0.00035226348
        tangentMode: 0
      - serializedVersion: 2
        time: 0.1
        value: 0.9999878
        inSlope: -0.0010943414
        outSlope: -0.0010943414
        tangentMode: 0
      - serializedVersion: 2
        time: 0.11666667
        value: 0.99996203
        inSlope: -0.0021779533
        outSlope: -0.0021779533
        tangentMode: 0
      - serializedVersion: 2
        time: 0.13333334
        value: 0.9999152
        inSlope: -0.0036478038
        outSlope: -0.0036478038
        tangentMode: 0
      - serializedVersion: 2
        time: 0.15
        value: 0.99984044
        inSlope: -0.005539656
        outSlope: -0.005539656
        tangentMode: 0
      - serializedVersion: 2
        time: 0.16666667
        value: 0.9997305
        inSlope: -0.007892848
        outSlope: -0.007892848
        tangentMode: 0
      - serializedVersion: 2
        time: 0.18333334
        value: 0.99957734
        inSlope: -0.010737778
        outSlope: -0.010737778
        tangentMode: 0
      - serializedVersion: 2
        time: 0.2
        value: 0.9993726
        inSlope: -0.014103057
        outSlope: -0.014103057
        tangentMode: 0
      - serializedVersion: 2
        time: 0.21666667
        value: 0.99910724
        inSlope: -0.018015506
        outSlope: -0.018015506
        tangentMode: 0
      - serializedVersion: 2
        time: 0.23333333
        value: 0.9987721
        inSlope: -0.022493007
        outSlope: -0.022493007
        tangentMode: 0
      - serializedVersion: 2
        time: 0.25
        value: 0.9983575
        inSlope: -0.027558792
        outSlope: -0.027558792
        tangentMode: 0
      - serializedVersion: 2
        time: 0.26666668
        value: 0.99785346
        inSlope: -0.033225387
        outSlope: -0.033225387
        tangentMode: 0
      - serializedVersion: 2
        time: 0.28333336
        value: 0.99724996
        inSlope: -0.03950533
        outSlope: -0.03950533
        tangentMode: 0
      - serializedVersion: 2
        time: 0.30000004
        value: 0.9965366
        inSlope: -0.046407543
        outSlope: -0.046407543
        tangentMode: 0
      - serializedVersion: 2
        time: 0.31666672
        value: 0.99570304
        inSlope: -0.053935602
        outSlope: -0.053935602
        tangentMode: 0
      - serializedVersion: 2
        time: 0.3333334
        value: 0.99473876
        inSlope: -0.062096663
        outSlope: -0.062096663
        tangentMode: 0
      - serializedVersion: 2
        time: 0.35000008
        value: 0.99363315
        inSlope: -0.07088536
        outSlope: -0.07088536
        tangentMode: 0
      - serializedVersion: 2
        time: 0.36666676
        value: 0.9923759
        inSlope: -0.08029991
        outSlope: -0.08029991
        tangentMode: 0
      - serializedVersion: 2
        time: 0.38333344
        value: 0.9909565
        inSlope: -0.09034388
        outSlope: -0.09034388
        tangentMode: 0
      - serializedVersion: 2
        time: 0.40000013
        value: 0.98936445
        inSlope: -0.10099223
        outSlope: -0.10099223
        tangentMode: 0
      - serializedVersion: 2
        time: 0.4166668
        value: 0.9875901
        inSlope: -0.112234265
        outSlope: -0.112234265
        tangentMode: 0
      - serializedVersion: 2
        time: 0.4333335
        value: 0.9856233
        inSlope: -0.12406637
        outSlope: -0.12406637
        tangentMode: 0
      - serializedVersion: 2
        time: 0.45000017
        value: 0.9834545
        inSlope: -0.13647068
        outSlope: -0.13647068
        tangentMode: 0
      - serializedVersion: 2
        time: 0.46666685
        value: 0.9810743
        inSlope: -0.14942217
        outSlope: -0.14942217
        tangentMode: 0
      - serializedVersion: 2
        time: 0.48333353
        value: 0.9784738
        inSlope: -0.16289414
        outSlope: -0.16289414
        tangentMode: 0
      - serializedVersion: 2
        time: 0.5000002
        value: 0.97564447
        inSlope: -0.17687398
        outSlope: -0.17687398
        tangentMode: 0
      - serializedVersion: 2
        time: 0.5166668
        value: 0.972578
        inSlope: -0.19132751
        outSlope: -0.19132751
        tangentMode: 0
      - serializedVersion: 2
        time: 0.5333335
        value: 0.9692669
        inSlope: -0.20622453
        outSlope: -0.20622453
        tangentMode: 0
      - serializedVersion: 2
        time: 0.55000013
        value: 0.96570385
        inSlope: -0.22153637
        outSlope: -0.22153637
        tangentMode: 0
      - serializedVersion: 2
        time: 0.5666668
        value: 0.96188235
        inSlope: -0.23723447
        outSlope: -0.23723447
        tangentMode: 0
      - serializedVersion: 2
        time: 0.58333343
        value: 0.95779604
        inSlope: -0.25328124
        outSlope: -0.25328124
        tangentMode: 0
      - serializedVersion: 2
        time: 0.6000001
        value: 0.95343965
        inSlope: -0.26963735
        outSlope: -0.26963735
        tangentMode: 0
      - serializedVersion: 2
        time: 0.61666673
        value: 0.94880813
        inSlope: -0.28626528
        outSlope: -0.28626528
        tangentMode: 0
      - serializedVersion: 2
        time: 0.6333334
        value: 0.9438975
        inSlope: -0.30312568
        outSlope: -0.30312568
        tangentMode: 0
      - serializedVersion: 2
        time: 0.65000004
        value: 0.93870395
        inSlope: -0.32018095
        outSlope: -0.32018095
        tangentMode: 0
      - serializedVersion: 2
        time: 0.6666667
        value: 0.9332248
        inSlope: -0.33738825
        outSlope: -0.33738825
        tangentMode: 0
      - serializedVersion: 2
        time: 0.68333334
        value: 0.9274577
        inSlope: -0.35470462
        outSlope: -0.35470462
        tangentMode: 0
      - serializedVersion: 2
        time: 0.7
        value: 0.9214013
        inSlope: -0.37208176
        outSlope: -0.37208176
        tangentMode: 0
      - serializedVersion: 2
        time: 0.71666664
        value: 0.915055
        inSlope: -0.38947856
        outSlope: -0.38947856
        tangentMode: 0
      - serializedVersion: 2
        time: 0.7333333
        value: 0.9084187
        inSlope: -0.40685037
        outSlope: -0.40685037
        tangentMode: 0
      - serializedVersion: 2
        time: 0.74999994
        value: 0.9014933
        inSlope: -0.39997315
        outSlope: -0.39997315
        tangentMode: 0
      - serializedVersion: 2
        time: 0.7666666
        value: 0.8950863
        inSlope: -0.34376475
        outSlope: -0.34376475
        tangentMode: 0
      - serializedVersion: 2
        time: 0.78333324
        value: 0.8900345
        inSlope: -0.2619573
        outSlope: -0.2619573
        tangentMode: 0
      - serializedVersion: 2
        time: 0.7999999
        value: 0.8863544
        inSlope: -0.18019992
        outSlope: -0.18019992
        tangentMode: 0
      - serializedVersion: 2
        time: 0.81666654
        value: 0.88402784
        inSlope: -0.10040233
        outSlope: -0.10040233
        tangentMode: 0
      - serializedVersion: 2
        time: 0.8333332
        value: 0.88300765
        inSlope: -0.024130965
        outSlope: -0.024130965
        tangentMode: 0
      - serializedVersion: 2
        time: 0.84999985
        value: 0.8832235
        inSlope: 0.047337458
        outSlope: 0.047337458
        tangentMode: 0
      - serializedVersion: 2
        time: 0.8666665
        value: 0.88458556
        inSlope: 0.112976536
        outSlope: 0.112976536
        tangentMode: 0
      - serializedVersion: 2
        time: 0.88333315
        value: 0.88698936
        inSlope: 0.1720138
        outSlope: 0.1720138
        tangentMode: 0
      - serializedVersion: 2
        time: 0.8999998
        value: 0.89031935
        inSlope: 0.22387525
        outSlope: 0.22387525
        tangentMode: 0
      - serializedVersion: 2
        time: 0.91666645
        value: 0.89445186
        inSlope: 0.26820147
        outSlope: 0.26820147
        tangentMode: 0
      - serializedVersion: 2
        time: 0.9333331
        value: 0.8992594
        inSlope: 0.3047976
        outSlope: 0.3047976
        tangentMode: 0
      - serializedVersion: 2
        time: 0.94999975
        value: 0.90461177
        inSlope: 0.33364207
        outSlope: 0.33364207
        tangentMode: 0
      - serializedVersion: 2
        time: 0.9666664
        value: 0.9103808
        inSlope: 0.3548745
        outSlope: 0.3548745
        tangentMode: 0
      - serializedVersion: 2
        time: 0.98333305
        value: 0.9164409
        inSlope: 0.36873972
        outSlope: 0.36873972
        tangentMode: 0
      - serializedVersion: 2
        time: 0.9999997
        value: 0.9226721
        inSlope: 0.37563235
        outSlope: 0.37563235
        tangentMode: 0
      - serializedVersion: 2
        time: 1.0166664
        value: 0.928962
        inSlope: 0.37603468
        outSlope: 0.37603468
        tangentMode: 0
      - serializedVersion: 2
        time: 1.0333331
        value: 0.9352066
        inSlope: 0.37052786
        outSlope: 0.37052786
        tangentMode: 0
      - serializedVersion: 2
        time: 1.0499997
        value: 0.9413129
        inSlope: 0.3597722
        outSlope: 0.3597722
        tangentMode: 0
      - serializedVersion: 2
        time: 1.0666664
        value: 0.947199
        inSlope: 0.3444657
        outSlope: 0.3444657
        tangentMode: 0
      - serializedVersion: 2
        time: 1.083333
        value: 0.9527951
        inSlope: 0.32535225
        outSlope: 0.32535225
        tangentMode: 0
      - serializedVersion: 2
        time: 1.0999997
        value: 0.95804405
        inSlope: 0.30319542
        outSlope: 0.30319542
        tangentMode: 0
      - serializedVersion: 2
        time: 1.1166663
        value: 0.9629016
        inSlope: 0.27874973
        outSlope: 0.27874973
        tangentMode: 0
      - serializedVersion: 2
        time: 1.133333
        value: 0.9673357
        inSlope: 0.25274122
        outSlope: 0.25274122
        tangentMode: 0
      - serializedVersion: 2
        time: 1.1499996
        value: 0.9713263
        inSlope: 0.22584757
        outSlope: 0.22584757
        tangentMode: 0
      - serializedVersion: 2
        time: 1.1666663
        value: 0.97486395
        inSlope: 0.19867499
        outSlope: 0.19867499
        tangentMode: 0
      - serializedVersion: 2
        time: 1.1833329
        value: 0.9779488
        inSlope: 0.17174022
        outSlope: 0.17174022
        tangentMode: 0
      - serializedVersion: 2
        time: 1.1999996
        value: 0.9805886
        inSlope: 0.14544024
        outSlope: 0.14544024
        tangentMode: 0
      - serializedVersion: 2
        time: 1.2166662
        value: 0.9827968
        inSlope: 0.120037906
        outSlope: 0.120037906
        tangentMode: 0
      - serializedVersion: 2
        time: 1.2333329
        value: 0.9845899
        inSlope: 0.095636934
        outSlope: 0.095636934
        tangentMode: 0
      - serializedVersion: 2
        time: 1.2499995
        value: 0.9859847
        inSlope: 0.0721515
        outSlope: 0.0721515
        tangentMode: 0
      - serializedVersion: 2
        time: 1.2666662
        value: 0.9869949
        inSlope: 0.049297262
        outSlope: 0.049297262
        tangentMode: 0
      - serializedVersion: 2
        time: 1.2833328
        value: 0.9876279
        inSlope: 0.026575353
        outSlope: 0.026575353
        tangentMode: 0
      - serializedVersion: 2
        time: 1.2999995
        value: 0.98788077
        inSlope: 0.0032401117
        outSlope: 0.0032401117
        tangentMode: 0
      - serializedVersion: 2
        time: 1.3166661
        value: 0.9877359
        inSlope: -0.02172055
        outSlope: -0.02172055
        tangentMode: 0
      - serializedVersion: 2
        time: 1.3333328
        value: 0.98715675
        inSlope: -0.049599454
        outSlope: -0.049599454
        tangentMode: 0
      - serializedVersion: 2
        time: 1.3499994
        value: 0.9860826
        inSlope: -0.08197911
        outSlope: -0.08197911
        tangentMode: 0
      - serializedVersion: 2
        time: 1.3666661
        value: 0.9844241
        inSlope: -0.049756814
        outSlope: -0.049756814
        tangentMode: 0
      - serializedVersion: 2
        time: 1.3833333
        value: 0.98442405
        inSlope: -0.0000035761543
        outSlope: -0.0000035761543
        tangentMode: 0
      m_PreInfinity: 2
      m_PostInfinity: 2
      m_RotationOrder: 4
    attribute: m_LocalRotation.w
    path: 
    classID: 4
    script: {fileID: 0}
  m_EulerEditorCurves:
  - curve:
      serializedVersion: 2
      m_Curve:
      - serializedVersion: 2
        time: 0
        value: 0
        inSlope: 0
        outSlope: 0
        tangentMode: 136
      - serializedVersion: 2
        time: 1.3833333
        value: -0.32113266
        inSlope: 0
        outSlope: 0
        tangentMode: 136
      m_PreInfinity: 2
      m_PostInfinity: 2
      m_RotationOrder: 4
    attribute: localEulerAnglesBaked.x
    path: 
    classID: 4
    script: {fileID: 0}
  - curve:
      serializedVersion: 2
      m_Curve:
      - serializedVersion: 2
        time: 0
        value: 0
        inSlope: 0
        outSlope: 0
        tangentMode: 136
      - serializedVersion: 2
        time: 1.2333333
        value: -0.20368576
        inSlope: 0
        outSlope: 0
        tangentMode: 136
      m_PreInfinity: 2
      m_PostInfinity: 2
      m_RotationOrder: 4
    attribute: localEulerAnglesBaked.y
    path: 
    classID: 4
    script: {fileID: 0}
  - curve:
      serializedVersion: 2
      m_Curve:
      - serializedVersion: 2
        time: 0
        value: 0.6604614
        inSlope: 0
        outSlope: 0
        tangentMode: 136
      - serializedVersion: 2
        time: 0.75
        value: -51.289215
        inSlope: -112.30637
        outSlope: -112.30637
        tangentMode: 0
      - serializedVersion: 2
        time: 1.3666667
        value: -20.247496
        inSlope: -77.792145
        outSlope: -77.792145
        tangentMode: 0
      m_PreInfinity: 2
      m_PostInfinity: 2
      m_RotationOrder: 4
    attribute: localEulerAnglesBaked.z
    path: 
    classID: 4
    script: {fileID: 0}
  m_HasGenericRootTransform: 0
  m_HasMotionFloatCurves: 0
  m_GenerateMotionCurves: 0
  m_IsEmpty: 0
  m_Events: []
